// Jest Snapshot v1, https://goo.gl/fbAQLP

exports[`DastSiteProfileSummary renders properly profile 0 1`] = `
<div
  class="row"
>
  <summary-cell-stub
    class=""
    label="Target URL"
    value="http://pending.test"
  />
   
  <summary-cell-stub
    label="Site type"
    value="Website"
  />
   
  <summary-cell-stub
    label="Authentication URL"
    value="http://pending.test/sign-in"
  />
   
  <summary-cell-stub
    label="Username"
    value="validation-pending@example.com"
  />
   
  <summary-cell-stub
    label="Password"
    value="••••••••"
  />
   
  <summary-cell-stub
    label="Username form field"
    value="session[username]"
  />
   
  <summary-cell-stub
    label="Password form field"
    value="session[password]"
  />
   
  <summary-cell-stub
    label="Excluded URLs"
    value="http://pending.test/sign-out,http://pending.test/hidden"
  />
   
  <summary-cell-stub
    label="Request headers"
  />
   
  <summary-cell-stub
    label="Validation status"
    value="Not Validated"
  />
</div>
`;

exports[`DastSiteProfileSummary renders properly profile 1 1`] = `
<div
  class="row"
>
  <summary-cell-stub
    class=""
    label="Target URL"
    value="http://inprogress.test"
  />
   
  <summary-cell-stub
    label="Site type"
    value="Website"
  />
   
  <summary-cell-stub
    label="Authentication URL"
    value="http://inprogress.test/sign-in"
  />
   
  <summary-cell-stub
    label="Username"
    value="validation-in-progress@example.com"
  />
   
  <summary-cell-stub
    label="Password"
    value="••••••••"
  />
   
  <summary-cell-stub
    label="Username form field"
    value="session[username]"
  />
   
  <summary-cell-stub
    label="Password form field"
    value="session[password]"
  />
   
  <summary-cell-stub
    label="Excluded URLs"
    value="http://inprogress.test/sign-out,http://inprogress.test/hidden"
  />
   
  <summary-cell-stub
    label="Request headers"
  />
   
  <summary-cell-stub
    label="Validation status"
    value="Not Validated"
  />
</div>
`;

exports[`DastSiteProfileSummary renders properly profile 2 1`] = `
<div
  class="row"
>
  <summary-cell-stub
    class=""
    label="Target URL"
    value="http://passed.test"
  />
   
  <summary-cell-stub
    label="Site type"
    value="Website"
  />
   
  <summary-cell-stub
    label="Authentication URL"
    value="http://passed.test/sign-in"
  />
   
  <summary-cell-stub
    label="Username"
    value="validation-passed@example.com"
  />
   
  <summary-cell-stub
    label="Password"
    value="••••••••"
  />
   
  <summary-cell-stub
    label="Username form field"
    value="session[username]"
  />
   
  <summary-cell-stub
    label="Password form field"
    value="session[password]"
  />
   
  <summary-cell-stub
    label="Excluded URLs"
    value="http://passed.test/sign-out,http://passed.test/hidden"
  />
   
  <summary-cell-stub
    label="Request headers"
  />
   
  <summary-cell-stub
    label="Validation status"
    value="Validated"
  />
</div>
`;

exports[`DastSiteProfileSummary renders properly profile 3 1`] = `
<div
  class="row"
>
  <summary-cell-stub
    class=""
    label="Target URL"
    value="http://failed.test"
  />
   
  <summary-cell-stub
    label="Site type"
    value="Website"
  />
   
  <summary-cell-stub
    label="Authentication URL"
    value="http://failed.test/sign-in"
  />
   
  <summary-cell-stub
    label="Username"
    value="validation-failed@example.com"
  />
   
  <summary-cell-stub
    label="Password"
    value="••••••••"
  />
   
  <summary-cell-stub
    label="Username form field"
    value="session[username]"
  />
   
  <summary-cell-stub
    label="Password form field"
    value="session[password]"
  />
   
  <summary-cell-stub
    label="Excluded URLs"
    value="http://failed.test/sign-out,http://failed.test/hidden"
  />
   
  <summary-cell-stub
    label="Request headers"
  />
   
  <summary-cell-stub
    label="Validation status"
    value="Not Validated"
  />
</div>
`;

exports[`DastSiteProfileSummary renders properly profile 4 1`] = `
<div
  class="row"
>
  <summary-cell-stub
    class=""
    label="Target URL"
    value="http://none.test"
  />
   
  <summary-cell-stub
    label="Site type"
    value="Website"
  />
   
  <summary-cell-stub
    label="Authentication URL"
    value="http://none.test/sign-in"
  />
   
  <summary-cell-stub
    label="Username"
    value="non-validated@example.com"
  />
   
  <summary-cell-stub
    label="Password"
    value="••••••••"
  />
   
  <summary-cell-stub
    label="Username form field"
    value="session[username]"
  />
   
  <summary-cell-stub
    label="Password form field"
    value="session[password]"
  />
   
  <summary-cell-stub
    label="Excluded URLs"
    value="http://none.test/sign-out,http://none.test/hidden"
  />
   
  <summary-cell-stub
    label="Request headers"
  />
   
  <summary-cell-stub
    label="Validation status"
    value="Not Validated"
  />
</div>
`;
